{
    "ctrlCfg" : {
        "type": "spec",
        "cfg" : {
            "specNum" : 0,
            "spiConfig" : 541584,
            "trigConfig" : {
                "mask" : 16,
                "mode" : 0,
                "config" : 65536,
                "edge" : 0,
                "delay" : [0, 0, 0, 0],
                "deadtime" : 3000
            },
            "cmdPeriod" : 6.25e-9,
            "rxPolarity" : 65535,
            "txPolarity" : 0,
            "rxActiveLanes": 1,
            "pulse" : {
                "word" : 0,
                "interval" : 500
            },
            "sync" : {
                "word" : 2172551550,
                "interval" : 16
            },
            "idle" : {
                "word" : 2863311530
            }
        }
    }
}
